{
  "workflow": {
    "unique_name": "definition_workflow_023XBO3NVG4J22NO37h5UIcKATltoPoJGbU",
    "name": "Copy(1)-SXO Logic Blocks",
    "title": "Copy(1)-SXO Logic Blocks",
    "type": "generic.workflow",
    "base_type": "workflow",
    "variables": [
      {
        "schema_id": "datatype.integer",
        "properties": {
          "value": 1,
          "scope": "local",
          "name": "Local Integer",
          "type": "datatype.integer",
          "is_required": false,
          "is_invisible": false
        },
        "unique_name": "variable_workflow_023XBO3O8NNVS4vtcuqEX56iQOko1qCutmw",
        "object_type": "variable_workflow"
      }
    ],
    "properties": {
      "atomic": {
        "is_atomic": false
      },
      "delete_workflow_instance": false,
      "display_name": "Copy(1)-SXO Logic Blocks",
      "runtime_user": {
        "override_target_runtime_user": false,
        "specify_on_workflow_start": false,
        "target_default": true
      },
      "target": {
        "no_target": true
      }
    },
    "object_type": "definition_workflow",
    "actions": [
      {
        "unique_name": "definition_activity_023XBO3QVMTWT6uo7KTcPTaDYTBRGJuScZx",
        "name": "To Upper",
        "title": "To Upper",
        "type": "core.string2upper",
        "base_type": "activity",
        "properties": {
          "continue_on_failure": false,
          "display_name": "To Upper",
          "skip_execution": false,
          "source": "automation"
        },
        "object_type": "definition_activity"
      },
      {
        "unique_name": "definition_activity_023XBO3RLRFXC1tokeQ0GeVSxHj8kM2ZCf3",
        "name": "Condition Block",
        "title": "Condition Block",
        "type": "logic.if_else",
        "base_type": "activity",
        "properties": {
          "continue_on_failure": false,
          "display_name": "Condition Block",
          "skip_execution": false
        },
        "object_type": "definition_activity",
        "blocks": [
          {
            "unique_name": "definition_activity_023XBO3SEC0N56erhbEsQLLeQeRiRNmYON9",
            "name": "Condition Branch",
            "title": "Condition Branch",
            "type": "logic.condition_block",
            "base_type": "activity",
            "properties": {
              "condition": {
                "left_operand": "$activity.definition_activity_023XBO3QVMTWT6uo7KTcPTaDYTBRGJuScZx.output.uppercase_text$",
                "operator": "eq",
                "right_operand": "AUTOMATION"
              },
              "continue_on_failure": false,
              "display_name": "Condition Branch",
              "skip_execution": false
            },
            "object_type": "definition_activity",
            "actions": [
              {
                "unique_name": "definition_activity_023XBO3TLQFR63n5tH7BmWico8PYu0qPZ2V",
                "name": "To Upper",
                "title": "To Upper",
                "type": "core.string2upper",
                "base_type": "activity",
                "properties": {
                  "continue_on_failure": false,
                  "display_name": "To Upper",
                  "skip_execution": false,
                  "source": "automation"
                },
                "object_type": "definition_activity"
              }
            ]
          },
          {
            "unique_name": "definition_activity_023XBO3UE45UC1pY5N8WxzUES5xT15YO5bh",
            "name": "Condition Branch",
            "title": "Condition Branch",
            "type": "logic.condition_block",
            "base_type": "activity",
            "properties": {
              "condition": {
                "left_operand": "$activity.definition_activity_023XBO3QVMTWT6uo7KTcPTaDYTBRGJuScZx.output.uppercase_text$",
                "operator": "ne",
                "right_operand": "Automation"
              },
              "continue_on_failure": false,
              "display_name": "Condition Branch",
              "skip_execution": false
            },
            "object_type": "definition_activity",
            "actions": [
              {
                "unique_name": "definition_activity_023XBO3VHYCU01f8kjtidG49vkiauVMt6kn",
                "name": "Completed",
                "title": "Completed",
                "type": "logic.completed",
                "base_type": "activity",
                "properties": {
                  "completion_type": "succeeded",
                  "continue_on_failure": false,
                  "display_name": "Completed",
                  "result_message": "upper Action Got Failed",
                  "skip_execution": false
                },
                "object_type": "definition_activity"
              }
            ]
          }
        ]
      },
      {
        "unique_name": "definition_activity_023XBO3W51JV80XtArXz84x1et3siuBTaWV",
        "name": "Group",
        "title": "Group",
        "type": "logic.group",
        "base_type": "activity",
        "properties": {
          "continue_on_failure": false,
          "display_name": "Group",
          "skip_execution": false
        },
        "object_type": "definition_activity",
        "actions": [
          {
            "unique_name": "definition_activity_023XBO3XLB5O21XRVHghpg0BlKu6mAAwFvp",
            "name": "Sleep",
            "title": "Sleep",
            "type": "core.sleep",
            "base_type": "activity",
            "properties": {
              "continue_on_failure": false,
              "display_name": "Sleep",
              "skip_execution": false,
              "sleep_interval": 1
            },
            "object_type": "definition_activity"
          }
        ]
      },
      {
        "unique_name": "definition_activity_023XBO3Y9AX585hyytjDFymrtNmxaLkboIV",
        "name": "Parallel Block",
        "title": "Parallel Block",
        "type": "logic.parallel",
        "base_type": "activity",
        "properties": {
          "continue_on_failure": false,
          "display_name": "Parallel Block",
          "skip_execution": false
        },
        "object_type": "definition_activity",
        "blocks": [
          {
            "unique_name": "definition_activity_023XBO3YXL3HP2iXASnal6EnFvYXPw6x1Cy",
            "name": "Parallel Branch",
            "title": "Parallel Branch",
            "type": "logic.parallel_block",
            "base_type": "activity",
            "properties": {
              "continue_on_failure": false,
              "display_name": "Parallel Branch",
              "skip_execution": false
            },
            "object_type": "definition_activity",
            "actions": [
              {
                "unique_name": "definition_activity_023XBO3ZV0EU35mkdfhLFvUM93LEBVdKH2m",
                "name": "Split String",
                "title": "Split String",
                "type": "core.splitstring",
                "base_type": "activity",
                "properties": {
                  "boundaries": [
                    {
                      "boundary": ","
                    }
                  ],
                  "continue_on_failure": false,
                  "display_name": "Split String",
                  "input_string": "a,b,c",
                  "skip_execution": false
                },
                "object_type": "definition_activity"
              },
              {
                "unique_name": "definition_activity_023XBO40ISY502JERL7EDB0nuFWLdN0aLVB",
                "name": "For Each",
                "title": "For Each",
                "type": "logic.for_each",
                "base_type": "activity",
                "properties": {
                  "continue_on_failure": false,
                  "display_name": "For Each",
                  "skip_execution": false,
                  "source_array": "$activity.definition_activity_023XBO3ZV0EU35mkdfhLFvUM93LEBVdKH2m.output.parts$"
                },
                "object_type": "definition_activity",
                "actions": [
                  {
                    "unique_name": "definition_activity_023XBO426QBRB3vNihHNzhDXgooQMpwYwai",
                    "name": "To Upper",
                    "title": "To Upper",
                    "type": "core.string2upper",
                    "base_type": "activity",
                    "properties": {
                      "continue_on_failure": false,
                      "display_name": "To Upper",
                      "skip_execution": false,
                      "source": "$activity.definition_activity_023XBO40ISY502JERL7EDB0nuFWLdN0aLVB.input.source_array[@]$"
                    },
                    "object_type": "definition_activity"
                  },
                  {
                    "unique_name": "definition_activity_023XBO437JMNL6RDVjizCPPuICdmr4RLSz4",
                    "name": "Continue",
                    "title": "Continue",
                    "type": "logic.continue",
                    "base_type": "activity",
                    "properties": {
                      "continue_on_failure": false,
                      "display_name": "Continue",
                      "skip_execution": false
                    },
                    "object_type": "definition_activity"
                  }
                ]
              }
            ]
          },
          {
            "unique_name": "definition_activity_023XBO43UFDJE5ugs0ETP5vN5gYfdLssAv9",
            "name": "Parallel Branch",
            "title": "Parallel Branch",
            "type": "logic.parallel_block",
            "base_type": "activity",
            "properties": {
              "continue_on_failure": false,
              "display_name": "Parallel Branch",
              "skip_execution": false
            },
            "object_type": "definition_activity",
            "actions": [
              {
                "unique_name": "definition_activity_023XBO44SORPQ6KVIic4Z3mfVd9m06sBlq5",
                "name": "Split String",
                "title": "Split String",
                "type": "core.splitstring",
                "base_type": "activity",
                "properties": {
                  "boundaries": [
                    {
                      "boundary": ","
                    }
                  ],
                  "continue_on_failure": false,
                  "display_name": "Split String",
                  "input_string": "a,b,c",
                  "skip_execution": false
                },
                "object_type": "definition_activity"
              },
              {
                "unique_name": "definition_activity_023XBO45I09ZR2lOO30S0cpn9JgyfbRj2WG",
                "name": "For Each",
                "title": "For Each",
                "type": "logic.for_each",
                "base_type": "activity",
                "properties": {
                  "continue_on_failure": false,
                  "display_name": "For Each",
                  "skip_execution": false,
                  "source_array": "$activity.definition_activity_023XBO44SORPQ6KVIic4Z3mfVd9m06sBlq5.output.parts$"
                },
                "object_type": "definition_activity",
                "actions": [
                  {
                    "unique_name": "definition_activity_023XBO476MIQF3Ey18mgYi4IJl8YzVo8Y2m",
                    "name": "To Upper",
                    "title": "To Upper",
                    "type": "core.string2upper",
                    "base_type": "activity",
                    "properties": {
                      "continue_on_failure": false,
                      "display_name": "To Upper",
                      "skip_execution": false,
                      "source": "$activity.definition_activity_023XBO45I09ZR2lOO30S0cpn9JgyfbRj2WG.input.source_array[@]$"
                    },
                    "object_type": "definition_activity"
                  },
                  {
                    "unique_name": "definition_activity_023XBO4867E4X5KWyU4u2BvJBqAWj0AtXR5",
                    "name": "Completed",
                    "title": "Completed",
                    "type": "logic.completed",
                    "base_type": "activity",
                    "properties": {
                      "completion_type": "succeeded",
                      "continue_on_failure": false,
                      "display_name": "Completed",
                      "skip_execution": true
                    },
                    "object_type": "definition_activity"
                  }
                ]
              }
            ]
          },
          {
            "unique_name": "definition_activity_023XBO48T6ZGU1iFgeuXD61N6VO4UKwTFED",
            "name": "Parallel Branch",
            "title": "Parallel Branch",
            "type": "logic.parallel_block",
            "base_type": "activity",
            "properties": {
              "continue_on_failure": false,
              "display_name": "Parallel Branch",
              "skip_execution": false
            },
            "object_type": "definition_activity",
            "actions": [
              {
                "unique_name": "definition_activity_023XBO49QKZYV6K4i0NP4Ho3xtQveL0NbNj",
                "name": "Split String",
                "title": "Split String",
                "type": "core.splitstring",
                "base_type": "activity",
                "properties": {
                  "boundaries": [
                    {
                      "boundary": ","
                    }
                  ],
                  "continue_on_failure": false,
                  "display_name": "Split String",
                  "input_string": "a,b,c",
                  "skip_execution": false
                },
                "object_type": "definition_activity"
              },
              {
                "unique_name": "definition_activity_023XBO4AEMB3E72QXbys3QEW5PcJuVVv8vV",
                "name": "For Each",
                "title": "For Each",
                "type": "logic.for_each",
                "base_type": "activity",
                "properties": {
                  "continue_on_failure": false,
                  "display_name": "For Each",
                  "skip_execution": false,
                  "source_array": "$activity.definition_activity_023XBO49QKZYV6K4i0NP4Ho3xtQveL0NbNj.output.parts$"
                },
                "object_type": "definition_activity",
                "actions": [
                  {
                    "unique_name": "definition_activity_023XBO4CAEK6T6fWLgbowjBvzVBM86IefV3",
                    "name": "To Upper",
                    "title": "To Upper",
                    "type": "core.string2upper",
                    "base_type": "activity",
                    "properties": {
                      "continue_on_failure": false,
                      "display_name": "To Upper",
                      "skip_execution": false,
                      "source": "$activity.definition_activity_023XBO4AEMB3E72QXbys3QEW5PcJuVVv8vV.input.source_array[@]$"
                    },
                    "object_type": "definition_activity"
                  },
                  {
                    "unique_name": "definition_activity_023XBO4DDYMDB68YsVR9LQi4NbhNWLZlK8b",
                    "name": "Break",
                    "title": "Break",
                    "type": "logic.break",
                    "base_type": "activity",
                    "properties": {
                      "continue_on_failure": false,
                      "display_name": "Break",
                      "skip_execution": false
                    },
                    "object_type": "definition_activity"
                  }
                ]
              }
            ]
          }
        ]
      },
      {
        "unique_name": "definition_activity_023XBO4E16IZW5bD1D26kqtCi1lYvepl2Om",
        "name": "While Loop",
        "title": "While Loop",
        "type": "logic.while",
        "base_type": "activity",
        "properties": {
          "continue_on_failure": false,
          "display_name": "While Loop",
          "skip_execution": false
        },
        "object_type": "definition_activity",
        "blocks": [
          {
            "unique_name": "definition_activity_023XBO4ETBRY25WvAlV50ndw2MlRA0gsrsj",
            "name": "Condition Branch",
            "title": "Condition Branch",
            "type": "logic.condition_block",
            "base_type": "activity",
            "properties": {
              "condition": {
                "left_operand": "$workflow.definition_workflow_023XBO3NVG4J22NO37h5UIcKATltoPoJGbU.local.variable_workflow_023XBO3O8NNVS4vtcuqEX56iQOko1qCutmw$",
                "operator": "lt",
                "right_operand": 5
              },
              "continue_on_failure": false,
              "display_name": "Condition Branch",
              "skip_execution": false
            },
            "object_type": "definition_activity",
            "actions": [
              {
                "unique_name": "definition_activity_023XBO4FX75C80yjbBatL3qYRO05jhbx7mM",
                "name": "To Upper",
                "title": "To Upper",
                "type": "core.string2upper",
                "base_type": "activity",
                "properties": {
                  "continue_on_failure": false,
                  "display_name": "To Upper",
                  "skip_execution": false,
                  "source": "While loop"
                },
                "object_type": "definition_activity"
              },
              {
                "unique_name": "definition_activity_023XBO4GQ89P120USYbuanJmtMMWrtJCcqi",
                "name": "Set Variables",
                "title": "Set Variables",
                "type": "core.set_multiple_variables",
                "base_type": "activity",
                "properties": {
                  "continue_on_failure": false,
                  "display_name": "Set Variables",
                  "skip_execution": false,
                  "variables_to_update": [
                    {
                      "variable_to_update": "$workflow.definition_workflow_023XBO3NVG4J22NO37h5UIcKATltoPoJGbU.local.variable_workflow_023XBO3O8NNVS4vtcuqEX56iQOko1qCutmw$",
                      "variable_value_new": "$workflow.definition_workflow_023XBO3NVG4J22NO37h5UIcKATltoPoJGbU.local.variable_workflow_023XBO3O8NNVS4vtcuqEX56iQOko1qCutmw$+1"
                    }
                  ]
                },
                "object_type": "definition_activity"
              }
            ]
          }
        ]
      },
      {
        "unique_name": "definition_activity_023XBO4HU7SE23Nbvlxws9WTnL21cLN1lVP",
        "name": "Start Point",
        "title": "Start Point",
        "type": "logic.start_point",
        "base_type": "activity",
        "properties": {
          "continue_on_failure": false,
          "display_name": "Start Point",
          "skip_execution": false
        },
        "object_type": "definition_activity"
      },
      {
        "unique_name": "definition_activity_023XBO4IPVLJJ1MjjU1DoDq7EPJ9iO32cTv",
        "name": "Completed",
        "title": "Completed",
        "type": "logic.completed",
        "base_type": "activity",
        "properties": {
          "completion_type": "succeeded",
          "continue_on_failure": false,
          "display_name": "Completed",
          "skip_execution": false
        },
        "object_type": "definition_activity"
      }
    ],
    "categories": [
      "category_1BMfMXSnJMyt5Ihqi7rWJr5N8cf"
    ]
  }
}