{
  "workflow": {
    "unique_name": "definition_workflow_023XBZ9ICRNII5yyI4nOcyZYiMrg0gbqmRy",
    "name": "Copy(1)-SXO Logic Blocks",
    "title": "Copy(1)-SXO Logic Blocks",
    "type": "generic.workflow",
    "base_type": "workflow",
    "variables": [
      {
        "schema_id": "datatype.integer",
        "properties": {
          "value": 1,
          "scope": "local",
          "name": "Local Integer",
          "type": "datatype.integer",
          "is_required": false,
          "is_invisible": false
        },
        "unique_name": "variable_workflow_023XBZ9IJWSWC1pGEfvuNNVH78NbJcz2aBe",
        "object_type": "variable_workflow"
      }
    ],
    "properties": {
      "atomic": {
        "is_atomic": false
      },
      "delete_workflow_instance": false,
      "display_name": "Copy(1)-SXO Logic Blocks",
      "runtime_user": {
        "override_target_runtime_user": false,
        "specify_on_workflow_start": false,
        "target_default": true
      },
      "target": {
        "no_target": true
      }
    },
    "object_type": "definition_workflow",
    "actions": [
      {
        "unique_name": "definition_activity_023XBZ9L3A0TQ7UgcN5WCdayDpKdRVMo4zk",
        "name": "To Upper",
        "title": "To Upper",
        "type": "core.string2upper",
        "base_type": "activity",
        "properties": {
          "continue_on_failure": false,
          "display_name": "To Upper",
          "skip_execution": false,
          "source": "automation"
        },
        "object_type": "definition_activity"
      },
      {
        "unique_name": "definition_activity_023XBZ9LSW0PO63EmeqVWzIvIgqEuevRBvd",
        "name": "Condition Block",
        "title": "Condition Block",
        "type": "logic.if_else",
        "base_type": "activity",
        "properties": {
          "continue_on_failure": false,
          "display_name": "Condition Block",
          "skip_execution": false
        },
        "object_type": "definition_activity",
        "blocks": [
          {
            "unique_name": "definition_activity_023XBZ9MLN59D7DiM4ovlsyk4aAhwueJA2L",
            "name": "Condition Branch",
            "title": "Condition Branch",
            "type": "logic.condition_block",
            "base_type": "activity",
            "properties": {
              "condition": {
                "left_operand": "$activity.definition_activity_023XBZ9L3A0TQ7UgcN5WCdayDpKdRVMo4zk.output.uppercase_text$",
                "operator": "eq",
                "right_operand": "AUTOMATION"
              },
              "continue_on_failure": false,
              "display_name": "Condition Branch",
              "skip_execution": false
            },
            "object_type": "definition_activity",
            "actions": [
              {
                "unique_name": "definition_activity_023XBZ9NLG4FW1dbxRwOglkeFR66jLZn0d3",
                "name": "To Upper",
                "title": "To Upper",
                "type": "core.string2upper",
                "base_type": "activity",
                "properties": {
                  "continue_on_failure": false,
                  "display_name": "To Upper",
                  "skip_execution": false,
                  "source": "automation"
                },
                "object_type": "definition_activity"
              }
            ]
          },
          {
            "unique_name": "definition_activity_023XBZ9OCRFLT15mRUw4D5OVxEbpmncf8pL",
            "name": "Condition Branch",
            "title": "Condition Branch",
            "type": "logic.condition_block",
            "base_type": "activity",
            "properties": {
              "condition": {
                "left_operand": "$activity.definition_activity_023XBZ9L3A0TQ7UgcN5WCdayDpKdRVMo4zk.output.uppercase_text$",
                "operator": "ne",
                "right_operand": "Automation"
              },
              "continue_on_failure": false,
              "display_name": "Condition Branch",
              "skip_execution": false
            },
            "object_type": "definition_activity",
            "actions": [
              {
                "unique_name": "definition_activity_023XBZ9PGYHPO2yz3mbq9ceziT8R9DNAlqB",
                "name": "Completed",
                "title": "Completed",
                "type": "logic.completed",
                "base_type": "activity",
                "properties": {
                  "completion_type": "succeeded",
                  "continue_on_failure": false,
                  "display_name": "Completed",
                  "result_message": "upper Action Got Failed",
                  "skip_execution": false
                },
                "object_type": "definition_activity"
              }
            ]
          }
        ]
      },
      {
        "unique_name": "definition_activity_023XBZ9Q3PFV77IXymN0hO2IT4oNEdd4VMV",
        "name": "Group",
        "title": "Group",
        "type": "logic.group",
        "base_type": "activity",
        "properties": {
          "continue_on_failure": false,
          "display_name": "Group",
          "skip_execution": false
        },
        "object_type": "definition_activity",
        "actions": [
          {
            "unique_name": "definition_activity_023XBZ9R9MX4S69S3Vlsr49pBbpEuqx1gfX",
            "name": "Sleep",
            "title": "Sleep",
            "type": "core.sleep",
            "base_type": "activity",
            "properties": {
              "continue_on_failure": false,
              "display_name": "Sleep",
              "skip_execution": false,
              "sleep_interval": 1
            },
            "object_type": "definition_activity"
          }
        ]
      },
      {
        "unique_name": "definition_activity_023XBZ9RWGW251itn0cBj2M1dTUWzwUNQCj",
        "name": "Parallel Block",
        "title": "Parallel Block",
        "type": "logic.parallel",
        "base_type": "activity",
        "properties": {
          "continue_on_failure": false,
          "display_name": "Parallel Block",
          "skip_execution": false
        },
        "object_type": "definition_activity",
        "blocks": [
          {
            "unique_name": "definition_activity_023XBZ9SIF06A03KRAGu3EqxhiMwKTo06UM",
            "name": "Parallel Branch",
            "title": "Parallel Branch",
            "type": "logic.parallel_block",
            "base_type": "activity",
            "properties": {
              "continue_on_failure": false,
              "display_name": "Parallel Branch",
              "skip_execution": false
            },
            "object_type": "definition_activity",
            "actions": [
              {
                "unique_name": "definition_activity_023XBZ9TLAW116vDCdMwTg9YEfq3W7i6BKn",
                "name": "Split String",
                "title": "Split String",
                "type": "core.splitstring",
                "base_type": "activity",
                "properties": {
                  "boundaries": [
                    {
                      "boundary": ","
                    }
                  ],
                  "continue_on_failure": false,
                  "display_name": "Split String",
                  "input_string": "a,b,c",
                  "skip_execution": false
                },
                "object_type": "definition_activity"
              },
              {
                "unique_name": "definition_activity_023XBZ9UIQ8FQ7OR6XwLOjbvy07ysLMwuGH",
                "name": "For Each",
                "title": "For Each",
                "type": "logic.for_each",
                "base_type": "activity",
                "properties": {
                  "continue_on_failure": false,
                  "display_name": "For Each",
                  "skip_execution": false,
                  "source_array": "$activity.definition_activity_023XBZ9TLAW116vDCdMwTg9YEfq3W7i6BKn.output.parts$"
                },
                "object_type": "definition_activity",
                "actions": [
                  {
                    "unique_name": "definition_activity_023XBZ9W4REP60V65EAivtv6KDZrABiSt3J",
                    "name": "To Upper",
                    "title": "To Upper",
                    "type": "core.string2upper",
                    "base_type": "activity",
                    "properties": {
                      "continue_on_failure": false,
                      "display_name": "To Upper",
                      "skip_execution": false,
                      "source": "$activity.definition_activity_023XBZ9UIQ8FQ7OR6XwLOjbvy07ysLMwuGH.input.source_array[@]$"
                    },
                    "object_type": "definition_activity"
                  },
                  {
                    "unique_name": "definition_activity_023XBZ9XE7HLC70xa0OjKHlhlP4et8rxiXx",
                    "name": "Continue",
                    "title": "Continue",
                    "type": "logic.continue",
                    "base_type": "activity",
                    "properties": {
                      "continue_on_failure": false,
                      "display_name": "Continue",
                      "skip_execution": false
                    },
                    "object_type": "definition_activity"
                  }
                ]
              }
            ]
          },
          {
            "unique_name": "definition_activity_023XBZ9XZ8NKC7gUUIlDLlwMW9Ynbuoku2M",
            "name": "Parallel Branch",
            "title": "Parallel Branch",
            "type": "logic.parallel_block",
            "base_type": "activity",
            "properties": {
              "continue_on_failure": false,
              "display_name": "Parallel Branch",
              "skip_execution": false
            },
            "object_type": "definition_activity",
            "actions": [
              {
                "unique_name": "definition_activity_023XBZ9YWD1IQ67Iv1rN5PAajd9xKrlUsii",
                "name": "Split String",
                "title": "Split String",
                "type": "core.splitstring",
                "base_type": "activity",
                "properties": {
                  "boundaries": [
                    {
                      "boundary": ","
                    }
                  ],
                  "continue_on_failure": false,
                  "display_name": "Split String",
                  "input_string": "a,b,c",
                  "skip_execution": false
                },
                "object_type": "definition_activity"
              },
              {
                "unique_name": "definition_activity_023XBZ9ZHPLP77eg8oIuxm0w7J41fERPUav",
                "name": "For Each",
                "title": "For Each",
                "type": "logic.for_each",
                "base_type": "activity",
                "properties": {
                  "continue_on_failure": false,
                  "display_name": "For Each",
                  "skip_execution": false,
                  "source_array": "$activity.definition_activity_023XBZ9YWD1IQ67Iv1rN5PAajd9xKrlUsii.output.parts$"
                },
                "object_type": "definition_activity",
                "actions": [
                  {
                    "unique_name": "definition_activity_023XBZA16B90C2eGfBQhw9g09R4PKF6Lcmf",
                    "name": "To Upper",
                    "title": "To Upper",
                    "type": "core.string2upper",
                    "base_type": "activity",
                    "properties": {
                      "continue_on_failure": false,
                      "display_name": "To Upper",
                      "skip_execution": false,
                      "source": "$activity.definition_activity_023XBZ9ZHPLP77eg8oIuxm0w7J41fERPUav.input.source_array[@]$"
                    },
                    "object_type": "definition_activity"
                  },
                  {
                    "unique_name": "definition_activity_023XBZA25A2I67C6mWLhdCYzO1LFO6gnlm2",
                    "name": "Completed",
                    "title": "Completed",
                    "type": "logic.completed",
                    "base_type": "activity",
                    "properties": {
                      "completion_type": "succeeded",
                      "continue_on_failure": false,
                      "display_name": "Completed",
                      "skip_execution": true
                    },
                    "object_type": "definition_activity"
                  }
                ]
              }
            ]
          },
          {
            "unique_name": "definition_activity_023XBZA2QHI9W7A4Xu4PALrrUviDypXB2mE",
            "name": "Parallel Branch",
            "title": "Parallel Branch",
            "type": "logic.parallel_block",
            "base_type": "activity",
            "properties": {
              "continue_on_failure": false,
              "display_name": "Parallel Branch",
              "skip_execution": false
            },
            "object_type": "definition_activity",
            "actions": [
              {
                "unique_name": "definition_activity_023XBZA3KJGOP7UHyAuS6qKO7emJJpili5S",
                "name": "Split String",
                "title": "Split String",
                "type": "core.splitstring",
                "base_type": "activity",
                "properties": {
                  "boundaries": [
                    {
                      "boundary": ","
                    }
                  ],
                  "continue_on_failure": false,
                  "display_name": "Split String",
                  "input_string": "a,b,c",
                  "skip_execution": false
                },
                "object_type": "definition_activity"
              },
              {
                "unique_name": "definition_activity_023XBZA47NXXF3hatsV2IImjfRd5LCMQywU",
                "name": "For Each",
                "title": "For Each",
                "type": "logic.for_each",
                "base_type": "activity",
                "properties": {
                  "continue_on_failure": false,
                  "display_name": "For Each",
                  "skip_execution": false,
                  "source_array": "$activity.definition_activity_023XBZA3KJGOP7UHyAuS6qKO7emJJpili5S.output.parts$"
                },
                "object_type": "definition_activity",
                "actions": [
                  {
                    "unique_name": "definition_activity_023XBZA5V0X7J3phOY3CkjRXoQ83kKOpEcm",
                    "name": "To Upper",
                    "title": "To Upper",
                    "type": "core.string2upper",
                    "base_type": "activity",
                    "properties": {
                      "continue_on_failure": false,
                      "display_name": "To Upper",
                      "skip_execution": false,
                      "source": "$activity.definition_activity_023XBZA47NXXF3hatsV2IImjfRd5LCMQywU.input.source_array[@]$"
                    },
                    "object_type": "definition_activity"
                  },
                  {
                    "unique_name": "definition_activity_023XBZA768VIR6FZknZPh3I2pgcemIQ2u4K",
                    "name": "Break",
                    "title": "Break",
                    "type": "logic.break",
                    "base_type": "activity",
                    "properties": {
                      "continue_on_failure": false,
                      "display_name": "Break",
                      "skip_execution": false
                    },
                    "object_type": "definition_activity"
                  }
                ]
              }
            ]
          }
        ]
      },
      {
        "unique_name": "definition_activity_023XBZA7WTYHW1J9fAMPf4lAB3xiIRkEgxw",
        "name": "While Loop",
        "title": "While Loop",
        "type": "logic.while",
        "base_type": "activity",
        "properties": {
          "continue_on_failure": false,
          "display_name": "While Loop",
          "skip_execution": false
        },
        "object_type": "definition_activity",
        "blocks": [
          {
            "unique_name": "definition_activity_023XBZA8KI8R96ekcFqKQaAqVAABZczW5Ms",
            "name": "Condition Branch",
            "title": "Condition Branch",
            "type": "logic.condition_block",
            "base_type": "activity",
            "properties": {
              "condition": {
                "left_operand": "$workflow.definition_workflow_023XBZ9ICRNII5yyI4nOcyZYiMrg0gbqmRy.local.variable_workflow_023XBZ9IJWSWC1pGEfvuNNVH78NbJcz2aBe$",
                "operator": "lt",
                "right_operand": 5
              },
              "continue_on_failure": false,
              "display_name": "Condition Branch",
              "skip_execution": false
            },
            "object_type": "definition_activity",
            "actions": [
              {
                "unique_name": "definition_activity_023XBZA9J6V0Z0RvBZokWs6qYqjPpMjpbhh",
                "name": "To Upper",
                "title": "To Upper",
                "type": "core.string2upper",
                "base_type": "activity",
                "properties": {
                  "continue_on_failure": false,
                  "display_name": "To Upper",
                  "skip_execution": false,
                  "source": "While loop"
                },
                "object_type": "definition_activity"
              },
              {
                "unique_name": "definition_activity_023XBZAAAR0QB6fqCVHkxKCphk1MUWgexCv",
                "name": "Set Variables",
                "title": "Set Variables",
                "type": "core.set_multiple_variables",
                "base_type": "activity",
                "properties": {
                  "continue_on_failure": false,
                  "display_name": "Set Variables",
                  "skip_execution": false,
                  "variables_to_update": [
                    {
                      "variable_to_update": "$workflow.definition_workflow_023XBZ9ICRNII5yyI4nOcyZYiMrg0gbqmRy.local.variable_workflow_023XBZ9IJWSWC1pGEfvuNNVH78NbJcz2aBe$",
                      "variable_value_new": "$workflow.definition_workflow_023XBZ9ICRNII5yyI4nOcyZYiMrg0gbqmRy.local.variable_workflow_023XBZ9IJWSWC1pGEfvuNNVH78NbJcz2aBe$+1"
                    }
                  ]
                },
                "object_type": "definition_activity"
              }
            ]
          }
        ]
      },
      {
        "unique_name": "definition_activity_023XBZABE9PLY12kSmHELv31EzI94dngKrt",
        "name": "Start Point",
        "title": "Start Point",
        "type": "logic.start_point",
        "base_type": "activity",
        "properties": {
          "continue_on_failure": false,
          "display_name": "Start Point",
          "skip_execution": false
        },
        "object_type": "definition_activity"
      },
      {
        "unique_name": "definition_activity_023XBZAC95PRS3rA7dG9sMiEZVv3DoL1k5z",
        "name": "Completed",
        "title": "Completed",
        "type": "logic.completed",
        "base_type": "activity",
        "properties": {
          "completion_type": "succeeded",
          "continue_on_failure": false,
          "display_name": "Completed",
          "skip_execution": false
        },
        "object_type": "definition_activity"
      }
    ],
    "categories": [
      "category_1BMfMXSnJMyt5Ihqi7rWJr5N8cf"
    ]
  }
}