{
  "workflow": {
    "unique_name": "definition_workflow_023TZ1JXM8K6R0DgTVUHNKamkH4hYJC28Sd",
    "name": "Copy(1)-SXO Logic Blocks",
    "title": "Copy(1)-SXO Logic Blocks",
    "type": "generic.workflow",
    "base_type": "workflow",
    "variables": [
      {
        "schema_id": "datatype.integer",
        "properties": {
          "value": 1,
          "scope": "local",
          "name": "Local Integer",
          "type": "datatype.integer",
          "is_required": false,
          "is_invisible": false
        },
        "unique_name": "variable_workflow_023TZ1JY1KN7Q2e3jlRbZESoP6R7GwdF2mY",
        "object_type": "variable_workflow"
      }
    ],
    "properties": {
      "atomic": {
        "is_atomic": false
      },
      "delete_workflow_instance": false,
      "display_name": "Copy(1)-SXO Logic Blocks",
      "runtime_user": {
        "override_target_runtime_user": false,
        "specify_on_workflow_start": false,
        "target_default": true
      },
      "target": {
        "no_target": true
      }
    },
    "object_type": "definition_workflow",
    "actions": [
      {
        "unique_name": "definition_activity_023TZ1K0GU1J50AgV9qYphCXSTSEJDNrhou",
        "name": "To Upper",
        "title": "To Upper",
        "type": "core.string2upper",
        "base_type": "activity",
        "properties": {
          "continue_on_failure": false,
          "display_name": "To Upper",
          "skip_execution": false,
          "source": "automation"
        },
        "object_type": "definition_activity"
      },
      {
        "unique_name": "definition_activity_023TZ1K16OBKD1C5raHUjpT8IVPpxJVDqxB",
        "name": "Condition Block",
        "title": "Condition Block",
        "type": "logic.if_else",
        "base_type": "activity",
        "properties": {
          "continue_on_failure": false,
          "display_name": "Condition Block",
          "skip_execution": false
        },
        "object_type": "definition_activity",
        "blocks": [
          {
            "unique_name": "definition_activity_023TZ1K20YB2L5N65osW2xMgrgquAzVCxHL",
            "name": "Condition Branch",
            "title": "Condition Branch",
            "type": "logic.condition_block",
            "base_type": "activity",
            "properties": {
              "condition": {
                "left_operand": "$activity.definition_activity_023TZ1K0GU1J50AgV9qYphCXSTSEJDNrhou.output.uppercase_text$",
                "operator": "eq",
                "right_operand": "AUTOMATION"
              },
              "continue_on_failure": false,
              "display_name": "Condition Branch",
              "skip_execution": false
            },
            "object_type": "definition_activity",
            "actions": [
              {
                "unique_name": "definition_activity_023TZ1K349WX14ie7w6bRYfJOhza3SVzdtR",
                "name": "To Upper",
                "title": "To Upper",
                "type": "core.string2upper",
                "base_type": "activity",
                "properties": {
                  "continue_on_failure": false,
                  "display_name": "To Upper",
                  "skip_execution": false,
                  "source": "automation"
                },
                "object_type": "definition_activity"
              }
            ]
          },
          {
            "unique_name": "definition_activity_023TZ1K3WVVF50NfR5fAjnQdZTh8sKBSo0j",
            "name": "Condition Branch",
            "title": "Condition Branch",
            "type": "logic.condition_block",
            "base_type": "activity",
            "properties": {
              "condition": {
                "left_operand": "$activity.definition_activity_023TZ1K0GU1J50AgV9qYphCXSTSEJDNrhou.output.uppercase_text$",
                "operator": "ne",
                "right_operand": "Automation"
              },
              "continue_on_failure": false,
              "display_name": "Condition Branch",
              "skip_execution": false
            },
            "object_type": "definition_activity",
            "actions": [
              {
                "unique_name": "definition_activity_023TZ1K57DDT602UuMqUWhcgOM6YBkRJPB9",
                "name": "Completed",
                "title": "Completed",
                "type": "logic.completed",
                "base_type": "activity",
                "properties": {
                  "completion_type": "succeeded",
                  "continue_on_failure": false,
                  "display_name": "Completed",
                  "result_message": "upper Action Got Failed",
                  "skip_execution": false
                },
                "object_type": "definition_activity"
              }
            ]
          }
        ]
      },
      {
        "unique_name": "definition_activity_023TZ1K5U172Q7gr8W4oiXwx3o8MD9JgY2p",
        "name": "Group",
        "title": "Group",
        "type": "logic.group",
        "base_type": "activity",
        "properties": {
          "continue_on_failure": false,
          "display_name": "Group",
          "skip_execution": false
        },
        "object_type": "definition_activity",
        "actions": [
          {
            "unique_name": "definition_activity_023TZ1K75GQUG1pzgUJL4ehMGEOdbhj4nme",
            "name": "Sleep",
            "title": "Sleep",
            "type": "core.sleep",
            "base_type": "activity",
            "properties": {
              "continue_on_failure": false,
              "display_name": "Sleep",
              "skip_execution": false,
              "sleep_interval": 1
            },
            "object_type": "definition_activity"
          }
        ]
      },
      {
        "unique_name": "definition_activity_023TZ1K7TPQVW1FJkwW9M6NGVmmkQ81RtVB",
        "name": "Parallel Block",
        "title": "Parallel Block",
        "type": "logic.parallel",
        "base_type": "activity",
        "properties": {
          "continue_on_failure": false,
          "display_name": "Parallel Block",
          "skip_execution": false
        },
        "object_type": "definition_activity",
        "blocks": [
          {
            "unique_name": "definition_activity_023TZ1K8JO0HK1xairKLQxxxTd8zj4L2LDE",
            "name": "Parallel Branch",
            "title": "Parallel Branch",
            "type": "logic.parallel_block",
            "base_type": "activity",
            "properties": {
              "continue_on_failure": false,
              "display_name": "Parallel Branch",
              "skip_execution": false
            },
            "object_type": "definition_activity",
            "actions": [
              {
                "unique_name": "definition_activity_023TZ1K9LJIK22TIOoSGZGHdEInQ3pvLim4",
                "name": "Split String",
                "title": "Split String",
                "type": "core.splitstring",
                "base_type": "activity",
                "properties": {
                  "boundaries": [
                    {
                      "boundary": ","
                    }
                  ],
                  "continue_on_failure": false,
                  "display_name": "Split String",
                  "input_string": "a,b,c",
                  "skip_execution": false
                },
                "object_type": "definition_activity"
              },
              {
                "unique_name": "definition_activity_023TZ1KABS80L3Nv5jSyClP3BmMHhDdOFyd",
                "name": "For Each",
                "title": "For Each",
                "type": "logic.for_each",
                "base_type": "activity",
                "properties": {
                  "continue_on_failure": false,
                  "display_name": "For Each",
                  "skip_execution": false,
                  "source_array": "$activity.definition_activity_023TZ1K9LJIK22TIOoSGZGHdEInQ3pvLim4.output.parts$"
                },
                "object_type": "definition_activity",
                "actions": [
                  {
                    "unique_name": "definition_activity_023TZ1KC539X35VLIe2q0QqTe2CXoknxDC1",
                    "name": "To Upper",
                    "title": "To Upper",
                    "type": "core.string2upper",
                    "base_type": "activity",
                    "properties": {
                      "continue_on_failure": false,
                      "display_name": "To Upper",
                      "skip_execution": false,
                      "source": "$activity.definition_activity_023TZ1KABS80L3Nv5jSyClP3BmMHhDdOFyd.input.source_array[@]$"
                    },
                    "object_type": "definition_activity"
                  },
                  {
                    "unique_name": "definition_activity_023TZ1KD9MJLV5nOeElb7wOXD2fRNYNXBSR",
                    "name": "Continue",
                    "title": "Continue",
                    "type": "logic.continue",
                    "base_type": "activity",
                    "properties": {
                      "continue_on_failure": false,
                      "display_name": "Continue",
                      "skip_execution": false
                    },
                    "object_type": "definition_activity"
                  }
                ]
              }
            ]
          },
          {
            "unique_name": "definition_activity_023TZ1KDX4IIV2EpbzKJPFOO0my2jkZ1oBE",
            "name": "Parallel Branch",
            "title": "Parallel Branch",
            "type": "logic.parallel_block",
            "base_type": "activity",
            "properties": {
              "continue_on_failure": false,
              "display_name": "Parallel Branch",
              "skip_execution": false
            },
            "object_type": "definition_activity",
            "actions": [
              {
                "unique_name": "definition_activity_023TZ1KEVN8YD2boecFK5ACkxF7fsXpZY3L",
                "name": "Split String",
                "title": "Split String",
                "type": "core.splitstring",
                "base_type": "activity",
                "properties": {
                  "boundaries": [
                    {
                      "boundary": ","
                    }
                  ],
                  "continue_on_failure": false,
                  "display_name": "Split String",
                  "input_string": "a,b,c",
                  "skip_execution": false
                },
                "object_type": "definition_activity"
              },
              {
                "unique_name": "definition_activity_023TZ1KFKKXKM4rOr9YqwXQXrmbcNADY0c6",
                "name": "For Each",
                "title": "For Each",
                "type": "logic.for_each",
                "base_type": "activity",
                "properties": {
                  "continue_on_failure": false,
                  "display_name": "For Each",
                  "skip_execution": false,
                  "source_array": "$activity.definition_activity_023TZ1KEVN8YD2boecFK5ACkxF7fsXpZY3L.output.parts$"
                },
                "object_type": "definition_activity",
                "actions": [
                  {
                    "unique_name": "definition_activity_023TZ1KHXHR0O2um0dyPK1QBLXRY3SwB4W3",
                    "name": "To Upper",
                    "title": "To Upper",
                    "type": "core.string2upper",
                    "base_type": "activity",
                    "properties": {
                      "continue_on_failure": false,
                      "display_name": "To Upper",
                      "skip_execution": false,
                      "source": "$activity.definition_activity_023TZ1KFKKXKM4rOr9YqwXQXrmbcNADY0c6.input.source_array[@]$"
                    },
                    "object_type": "definition_activity"
                  },
                  {
                    "unique_name": "definition_activity_023TZ1KJ1LR312flkdqDZFvOSS2wVFEKFUp",
                    "name": "Completed",
                    "title": "Completed",
                    "type": "logic.completed",
                    "base_type": "activity",
                    "properties": {
                      "completion_type": "succeeded",
                      "continue_on_failure": false,
                      "display_name": "Completed",
                      "skip_execution": true
                    },
                    "object_type": "definition_activity"
                  }
                ]
              }
            ]
          },
          {
            "unique_name": "definition_activity_023TZ1KJR5LLA2tfmHYRgMnfbQnTOimYw4Q",
            "name": "Parallel Branch",
            "title": "Parallel Branch",
            "type": "logic.parallel_block",
            "base_type": "activity",
            "properties": {
              "continue_on_failure": false,
              "display_name": "Parallel Branch",
              "skip_execution": false
            },
            "object_type": "definition_activity",
            "actions": [
              {
                "unique_name": "definition_activity_023TZ1KL4ABHE7dM4YOxx5KgOVPLWoK7Q67",
                "name": "Split String",
                "title": "Split String",
                "type": "core.splitstring",
                "base_type": "activity",
                "properties": {
                  "boundaries": [
                    {
                      "boundary": ","
                    }
                  ],
                  "continue_on_failure": false,
                  "display_name": "Split String",
                  "input_string": "a,b,c",
                  "skip_execution": false
                },
                "object_type": "definition_activity"
              },
              {
                "unique_name": "definition_activity_023TZ1KLTT3SI1FW5oemxlzQ6TBMrexjwqS",
                "name": "For Each",
                "title": "For Each",
                "type": "logic.for_each",
                "base_type": "activity",
                "properties": {
                  "continue_on_failure": false,
                  "display_name": "For Each",
                  "skip_execution": false,
                  "source_array": "$activity.definition_activity_023TZ1KL4ABHE7dM4YOxx5KgOVPLWoK7Q67.output.parts$"
                },
                "object_type": "definition_activity",
                "actions": [
                  {
                    "unique_name": "definition_activity_023TZ1KNMHISY4oNgFHzwABrCD4qAHx0M1V",
                    "name": "To Upper",
                    "title": "To Upper",
                    "type": "core.string2upper",
                    "base_type": "activity",
                    "properties": {
                      "continue_on_failure": false,
                      "display_name": "To Upper",
                      "skip_execution": false,
                      "source": "$activity.definition_activity_023TZ1KLTT3SI1FW5oemxlzQ6TBMrexjwqS.input.source_array[@]$"
                    },
                    "object_type": "definition_activity"
                  },
                  {
                    "unique_name": "definition_activity_023TZ1KOOO1UM6PejHd8kppLZyngp6kDtp9",
                    "name": "Break",
                    "title": "Break",
                    "type": "logic.break",
                    "base_type": "activity",
                    "properties": {
                      "continue_on_failure": false,
                      "display_name": "Break",
                      "skip_execution": false
                    },
                    "object_type": "definition_activity"
                  }
                ]
              }
            ]
          }
        ]
      },
      {
        "unique_name": "definition_activity_023TZ1KPDQNSH56TdOgbgh7pl8hN1106y0Z",
        "name": "While Loop",
        "title": "While Loop",
        "type": "logic.while",
        "base_type": "activity",
        "properties": {
          "continue_on_failure": false,
          "display_name": "While Loop",
          "skip_execution": false
        },
        "object_type": "definition_activity",
        "blocks": [
          {
            "unique_name": "definition_activity_023TZ1KQ52SKS2TUWEoWL70jmEyocbY9bLc",
            "name": "Condition Branch",
            "title": "Condition Branch",
            "type": "logic.condition_block",
            "base_type": "activity",
            "properties": {
              "condition": {
                "left_operand": "$workflow.definition_workflow_023TZ1JXM8K6R0DgTVUHNKamkH4hYJC28Sd.local.variable_workflow_023TZ1JY1KN7Q2e3jlRbZESoP6R7GwdF2mY$",
                "operator": "lt",
                "right_operand": 5
              },
              "continue_on_failure": false,
              "display_name": "Condition Branch",
              "skip_execution": false
            },
            "object_type": "definition_activity",
            "actions": [
              {
                "unique_name": "definition_activity_023TZ1KR8791G7N7sew1Do7SRFDZHNH0RZi",
                "name": "To Upper",
                "title": "To Upper",
                "type": "core.string2upper",
                "base_type": "activity",
                "properties": {
                  "continue_on_failure": false,
                  "display_name": "To Upper",
                  "skip_execution": false,
                  "source": "While loop"
                },
                "object_type": "definition_activity"
              },
              {
                "unique_name": "definition_activity_023TZ1KS21R161eV25Oyux2OPs0FoxDINtc",
                "name": "Set Variables",
                "title": "Set Variables",
                "type": "core.set_multiple_variables",
                "base_type": "activity",
                "properties": {
                  "continue_on_failure": false,
                  "display_name": "Set Variables",
                  "skip_execution": false,
                  "variables_to_update": [
                    {
                      "variable_to_update": "$workflow.definition_workflow_023TZ1JXM8K6R0DgTVUHNKamkH4hYJC28Sd.local.variable_workflow_023TZ1JY1KN7Q2e3jlRbZESoP6R7GwdF2mY$",
                      "variable_value_new": "$workflow.definition_workflow_023TZ1JXM8K6R0DgTVUHNKamkH4hYJC28Sd.local.variable_workflow_023TZ1JY1KN7Q2e3jlRbZESoP6R7GwdF2mY$+1"
                    }
                  ]
                },
                "object_type": "definition_activity"
              }
            ]
          }
        ]
      },
      {
        "unique_name": "definition_activity_023TZ1KSVMWHH6XXdTmG1y0MYX3cAjqAez6",
        "name": "Start Point",
        "title": "Start Point",
        "type": "logic.start_point",
        "base_type": "activity",
        "properties": {
          "continue_on_failure": false,
          "display_name": "Start Point",
          "skip_execution": false
        },
        "object_type": "definition_activity"
      },
      {
        "unique_name": "definition_activity_023TZ1KTSTQAH1lQSNx73SgOA3MOoblg2WS",
        "name": "Completed",
        "title": "Completed",
        "type": "logic.completed",
        "base_type": "activity",
        "properties": {
          "completion_type": "succeeded",
          "continue_on_failure": false,
          "display_name": "Completed",
          "skip_execution": false
        },
        "object_type": "definition_activity"
      }
    ],
    "categories": [
      "category_1BMfMXSnJMyt5Ihqi7rWJr5N8cf"
    ]
  }
}