{
  "workflow": {
    "unique_name": "definition_workflow_023X13IY9V33U6JUbvIxV8MwsfIYgs7i3MW",
    "name": "Copy(1)-SXO Logic Blocks",
    "title": "Copy(1)-SXO Logic Blocks",
    "type": "generic.workflow",
    "base_type": "workflow",
    "variables": [
      {
        "schema_id": "datatype.integer",
        "properties": {
          "value": 1,
          "scope": "local",
          "name": "Local Integer",
          "type": "datatype.integer",
          "is_required": false,
          "is_invisible": false
        },
        "unique_name": "variable_workflow_023X13IYGZV6J7dpbbHhztneerumuU7fucq",
        "object_type": "variable_workflow"
      }
    ],
    "properties": {
      "atomic": {
        "is_atomic": false
      },
      "delete_workflow_instance": false,
      "display_name": "Copy(1)-SXO Logic Blocks",
      "runtime_user": {
        "override_target_runtime_user": false,
        "specify_on_workflow_start": false,
        "target_default": true
      },
      "target": {
        "no_target": true
      }
    },
    "object_type": "definition_workflow",
    "actions": [
      {
        "unique_name": "definition_activity_023X13J0TU5XB6K0RXjJZn0JbDIoVzZ2gph",
        "name": "To Upper",
        "title": "To Upper",
        "type": "core.string2upper",
        "base_type": "activity",
        "properties": {
          "continue_on_failure": false,
          "display_name": "To Upper",
          "skip_execution": false,
          "source": "automation"
        },
        "object_type": "definition_activity"
      },
      {
        "unique_name": "definition_activity_023X13J1J85OQ7XvpubpfP5CSUEZwzCrL6j",
        "name": "Condition Block",
        "title": "Condition Block",
        "type": "logic.if_else",
        "base_type": "activity",
        "properties": {
          "continue_on_failure": false,
          "display_name": "Condition Block",
          "skip_execution": false
        },
        "object_type": "definition_activity",
        "blocks": [
          {
            "unique_name": "definition_activity_023X13J2J2JZ75HSxnlZj9qiLQYnYRD5cqs",
            "name": "Condition Branch",
            "title": "Condition Branch",
            "type": "logic.condition_block",
            "base_type": "activity",
            "properties": {
              "condition": {
                "left_operand": "$activity.definition_activity_023X13J0TU5XB6K0RXjJZn0JbDIoVzZ2gph.output.uppercase_text$",
                "operator": "eq",
                "right_operand": "AUTOMATION"
              },
              "continue_on_failure": false,
              "display_name": "Condition Branch",
              "skip_execution": false
            },
            "object_type": "definition_activity",
            "actions": [
              {
                "unique_name": "definition_activity_023X13J3X4OTN376kHUCKeS4OojkpUUnqNl",
                "name": "To Upper",
                "title": "To Upper",
                "type": "core.string2upper",
                "base_type": "activity",
                "properties": {
                  "continue_on_failure": false,
                  "display_name": "To Upper",
                  "skip_execution": false,
                  "source": "automation"
                },
                "object_type": "definition_activity"
              }
            ]
          },
          {
            "unique_name": "definition_activity_023X13J4TAD9749z5t2cufBx9S7EmSVZvYV",
            "name": "Condition Branch",
            "title": "Condition Branch",
            "type": "logic.condition_block",
            "base_type": "activity",
            "properties": {
              "condition": {
                "left_operand": "$activity.definition_activity_023X13J0TU5XB6K0RXjJZn0JbDIoVzZ2gph.output.uppercase_text$",
                "operator": "ne",
                "right_operand": "Automation"
              },
              "continue_on_failure": false,
              "display_name": "Condition Branch",
              "skip_execution": false
            },
            "object_type": "definition_activity",
            "actions": [
              {
                "unique_name": "definition_activity_023X13J6OU0GH5smlpl3TUQfmGwgxqLJ9on",
                "name": "Completed",
                "title": "Completed",
                "type": "logic.completed",
                "base_type": "activity",
                "properties": {
                  "completion_type": "succeeded",
                  "continue_on_failure": false,
                  "display_name": "Completed",
                  "result_message": "upper Action Got Failed",
                  "skip_execution": false
                },
                "object_type": "definition_activity"
              }
            ]
          }
        ]
      },
      {
        "unique_name": "definition_activity_023X13J7GD2CY0L3nL1N2m7wnzCpOWCn1ar",
        "name": "Group",
        "title": "Group",
        "type": "logic.group",
        "base_type": "activity",
        "properties": {
          "continue_on_failure": false,
          "display_name": "Group",
          "skip_execution": false
        },
        "object_type": "definition_activity",
        "actions": [
          {
            "unique_name": "definition_activity_023X13J99QLSF1Y9pF7l2IIbRFPLyGgzdlD",
            "name": "Sleep",
            "title": "Sleep",
            "type": "core.sleep",
            "base_type": "activity",
            "properties": {
              "continue_on_failure": false,
              "display_name": "Sleep",
              "skip_execution": false,
              "sleep_interval": 1
            },
            "object_type": "definition_activity"
          }
        ]
      },
      {
        "unique_name": "definition_activity_023X13JA0RME61Fx24apzTOiRxzFdo0cpXr",
        "name": "Parallel Block",
        "title": "Parallel Block",
        "type": "logic.parallel",
        "base_type": "activity",
        "properties": {
          "continue_on_failure": false,
          "display_name": "Parallel Block",
          "skip_execution": false
        },
        "object_type": "definition_activity",
        "blocks": [
          {
            "unique_name": "definition_activity_023X13JARI3L846vz2fkMlrazlSgV5O3DxD",
            "name": "Parallel Branch",
            "title": "Parallel Branch",
            "type": "logic.parallel_block",
            "base_type": "activity",
            "properties": {
              "continue_on_failure": false,
              "display_name": "Parallel Branch",
              "skip_execution": false
            },
            "object_type": "definition_activity",
            "actions": [
              {
                "unique_name": "definition_activity_023X13JBX43UB0IE7MiyCcsO5ZAjDIiO7kF",
                "name": "Split String",
                "title": "Split String",
                "type": "core.splitstring",
                "base_type": "activity",
                "properties": {
                  "boundaries": [
                    {
                      "boundary": ","
                    }
                  ],
                  "continue_on_failure": false,
                  "display_name": "Split String",
                  "input_string": "a,b,c",
                  "skip_execution": false
                },
                "object_type": "definition_activity"
              },
              {
                "unique_name": "definition_activity_023X13JCPLGYI3ODIznxZNUAiZzuDmKXu3G",
                "name": "For Each",
                "title": "For Each",
                "type": "logic.for_each",
                "base_type": "activity",
                "properties": {
                  "continue_on_failure": false,
                  "display_name": "For Each",
                  "skip_execution": false,
                  "source_array": "$activity.definition_activity_023X13JBX43UB0IE7MiyCcsO5ZAjDIiO7kF.output.parts$"
                },
                "object_type": "definition_activity",
                "actions": [
                  {
                    "unique_name": "definition_activity_023X13JEQD8G85S9AhOdHT0JgLRG20uIn1M",
                    "name": "To Upper",
                    "title": "To Upper",
                    "type": "core.string2upper",
                    "base_type": "activity",
                    "properties": {
                      "continue_on_failure": false,
                      "display_name": "To Upper",
                      "skip_execution": false,
                      "source": "$activity.definition_activity_023X13JCPLGYI3ODIznxZNUAiZzuDmKXu3G.input.source_array[@]$"
                    },
                    "object_type": "definition_activity"
                  },
                  {
                    "unique_name": "definition_activity_023X13JG28NJN03UoCU3fXTbib5zHEZDAYw",
                    "name": "Continue",
                    "title": "Continue",
                    "type": "logic.continue",
                    "base_type": "activity",
                    "properties": {
                      "continue_on_failure": false,
                      "display_name": "Continue",
                      "skip_execution": false
                    },
                    "object_type": "definition_activity"
                  }
                ]
              }
            ]
          },
          {
            "unique_name": "definition_activity_023X13JGSF06O5TDZRwmZyhppJcHxvE1G2i",
            "name": "Parallel Branch",
            "title": "Parallel Branch",
            "type": "logic.parallel_block",
            "base_type": "activity",
            "properties": {
              "continue_on_failure": false,
              "display_name": "Parallel Branch",
              "skip_execution": false
            },
            "object_type": "definition_activity",
            "actions": [
              {
                "unique_name": "definition_activity_023X13JHV07RU0I0DcZpd8QmyReEQ8UcRcq",
                "name": "Split String",
                "title": "Split String",
                "type": "core.splitstring",
                "base_type": "activity",
                "properties": {
                  "boundaries": [
                    {
                      "boundary": ","
                    }
                  ],
                  "continue_on_failure": false,
                  "display_name": "Split String",
                  "input_string": "a,b,c",
                  "skip_execution": false
                },
                "object_type": "definition_activity"
              },
              {
                "unique_name": "definition_activity_023X13JIK1WYF1Xd9QQIJxXeTdk8KxaYSbu",
                "name": "For Each",
                "title": "For Each",
                "type": "logic.for_each",
                "base_type": "activity",
                "properties": {
                  "continue_on_failure": false,
                  "display_name": "For Each",
                  "skip_execution": false,
                  "source_array": "$activity.definition_activity_023X13JHV07RU0I0DcZpd8QmyReEQ8UcRcq.output.parts$"
                },
                "object_type": "definition_activity",
                "actions": [
                  {
                    "unique_name": "definition_activity_023X13JKMLX1N1IcEWCtUXZzUwo4ygSe5LQ",
                    "name": "To Upper",
                    "title": "To Upper",
                    "type": "core.string2upper",
                    "base_type": "activity",
                    "properties": {
                      "continue_on_failure": false,
                      "display_name": "To Upper",
                      "skip_execution": false,
                      "source": "$activity.definition_activity_023X13JIK1WYF1Xd9QQIJxXeTdk8KxaYSbu.input.source_array[@]$"
                    },
                    "object_type": "definition_activity"
                  },
                  {
                    "unique_name": "definition_activity_023X13JLS67YN0qyL8edDu9E8qLups5GIAX",
                    "name": "Completed",
                    "title": "Completed",
                    "type": "logic.completed",
                    "base_type": "activity",
                    "properties": {
                      "completion_type": "succeeded",
                      "continue_on_failure": false,
                      "display_name": "Completed",
                      "skip_execution": true
                    },
                    "object_type": "definition_activity"
                  }
                ]
              }
            ]
          },
          {
            "unique_name": "definition_activity_023X13JMRBT3A7LVtROrtVmDvcVRvpX37iP",
            "name": "Parallel Branch",
            "title": "Parallel Branch",
            "type": "logic.parallel_block",
            "base_type": "activity",
            "properties": {
              "continue_on_failure": false,
              "display_name": "Parallel Branch",
              "skip_execution": false
            },
            "object_type": "definition_activity",
            "actions": [
              {
                "unique_name": "definition_activity_023X13JNUNLGK2A8lkAdk03E7V6XkCztN0r",
                "name": "Split String",
                "title": "Split String",
                "type": "core.splitstring",
                "base_type": "activity",
                "properties": {
                  "boundaries": [
                    {
                      "boundary": ","
                    }
                  ],
                  "continue_on_failure": false,
                  "display_name": "Split String",
                  "input_string": "a,b,c",
                  "skip_execution": false
                },
                "object_type": "definition_activity"
              },
              {
                "unique_name": "definition_activity_023X13JONGGCN3JFrdSlGX7ZGTyPN8OHwLE",
                "name": "For Each",
                "title": "For Each",
                "type": "logic.for_each",
                "base_type": "activity",
                "properties": {
                  "continue_on_failure": false,
                  "display_name": "For Each",
                  "skip_execution": false,
                  "source_array": "$activity.definition_activity_023X13JNUNLGK2A8lkAdk03E7V6XkCztN0r.output.parts$"
                },
                "object_type": "definition_activity",
                "actions": [
                  {
                    "unique_name": "definition_activity_023X13JQLMH611wDqty3EWj4cLEPHyNTKqn",
                    "name": "To Upper",
                    "title": "To Upper",
                    "type": "core.string2upper",
                    "base_type": "activity",
                    "properties": {
                      "continue_on_failure": false,
                      "display_name": "To Upper",
                      "skip_execution": false,
                      "source": "$activity.definition_activity_023X13JONGGCN3JFrdSlGX7ZGTyPN8OHwLE.input.source_array[@]$"
                    },
                    "object_type": "definition_activity"
                  },
                  {
                    "unique_name": "definition_activity_023X13JROOAPE79SbLHKLkNerWgQ2DrMTAS",
                    "name": "Break",
                    "title": "Break",
                    "type": "logic.break",
                    "base_type": "activity",
                    "properties": {
                      "continue_on_failure": false,
                      "display_name": "Break",
                      "skip_execution": false
                    },
                    "object_type": "definition_activity"
                  }
                ]
              }
            ]
          }
        ]
      },
      {
        "unique_name": "definition_activity_023X13JSCV5T63NjM0ZLvfFvx6mWyypxnoa",
        "name": "While Loop",
        "title": "While Loop",
        "type": "logic.while",
        "base_type": "activity",
        "properties": {
          "continue_on_failure": false,
          "display_name": "While Loop",
          "skip_execution": false
        },
        "object_type": "definition_activity",
        "blocks": [
          {
            "unique_name": "definition_activity_023X13JT32NUT55dQfXCjtUFCDikMKDpRNM",
            "name": "Condition Branch",
            "title": "Condition Branch",
            "type": "logic.condition_block",
            "base_type": "activity",
            "properties": {
              "condition": {
                "left_operand": "$workflow.definition_workflow_023X13IY9V33U6JUbvIxV8MwsfIYgs7i3MW.local.variable_workflow_023X13IYGZV6J7dpbbHhztneerumuU7fucq$",
                "operator": "lt",
                "right_operand": 5
              },
              "continue_on_failure": false,
              "display_name": "Condition Branch",
              "skip_execution": false
            },
            "object_type": "definition_activity",
            "actions": [
              {
                "unique_name": "definition_activity_023X13JU5VHR64Uyx9E0DbWRlemdIxTeiV7",
                "name": "To Upper",
                "title": "To Upper",
                "type": "core.string2upper",
                "base_type": "activity",
                "properties": {
                  "continue_on_failure": false,
                  "display_name": "To Upper",
                  "skip_execution": false,
                  "source": "While loop"
                },
                "object_type": "definition_activity"
              },
              {
                "unique_name": "definition_activity_023X13JV2Y5GE4sXviBcX30foub4G0Yr5uS",
                "name": "Set Variables",
                "title": "Set Variables",
                "type": "core.set_multiple_variables",
                "base_type": "activity",
                "properties": {
                  "continue_on_failure": false,
                  "display_name": "Set Variables",
                  "skip_execution": false,
                  "variables_to_update": [
                    {
                      "variable_to_update": "$workflow.definition_workflow_023X13IY9V33U6JUbvIxV8MwsfIYgs7i3MW.local.variable_workflow_023X13IYGZV6J7dpbbHhztneerumuU7fucq$",
                      "variable_value_new": "$workflow.definition_workflow_023X13IY9V33U6JUbvIxV8MwsfIYgs7i3MW.local.variable_workflow_023X13IYGZV6J7dpbbHhztneerumuU7fucq$+1"
                    }
                  ]
                },
                "object_type": "definition_activity"
              }
            ]
          }
        ]
      },
      {
        "unique_name": "definition_activity_023X13JW1N3QW12gunUtUKEFJkZvtq2bBtc",
        "name": "Start Point",
        "title": "Start Point",
        "type": "logic.start_point",
        "base_type": "activity",
        "properties": {
          "continue_on_failure": false,
          "display_name": "Start Point",
          "skip_execution": false
        },
        "object_type": "definition_activity"
      },
      {
        "unique_name": "definition_activity_023X13JXB0EYE1rAPN8vqn8YfmGmKnaoz16",
        "name": "Completed",
        "title": "Completed",
        "type": "logic.completed",
        "base_type": "activity",
        "properties": {
          "completion_type": "succeeded",
          "continue_on_failure": false,
          "display_name": "Completed",
          "skip_execution": false
        },
        "object_type": "definition_activity"
      }
    ],
    "categories": [
      "category_1BMfMXSnJMyt5Ihqi7rWJr5N8cf"
    ]
  }
}