{
  "workflow": {
    "unique_name": "definition_workflow_024L1RG7326305Fsi7FrdAFBdJVF21ek8No",
    "name": "Copy(1)-SXO Logic Blocks",
    "title": "Copy(1)-SXO Logic Blocks",
    "type": "generic.workflow",
    "base_type": "workflow",
    "variables": [
      {
        "schema_id": "datatype.integer",
        "properties": {
          "value": 1,
          "scope": "local",
          "name": "Local Integer",
          "type": "datatype.integer",
          "is_required": false,
          "is_invisible": false
        },
        "unique_name": "variable_workflow_024L1RG79GSGN1fp4JqhCVSsylVYUB4ZtLd",
        "object_type": "variable_workflow"
      }
    ],
    "properties": {
      "atomic": {
        "is_atomic": false
      },
      "delete_workflow_instance": false,
      "display_name": "Copy(1)-SXO Logic Blocks",
      "runtime_user": {
        "override_target_runtime_user": false,
        "specify_on_workflow_start": false,
        "target_default": true
      },
      "target": {
        "no_target": true
      }
    },
    "object_type": "definition_workflow",
    "actions": [
      {
        "unique_name": "definition_activity_024L1RG96RVVU3JHPkbA08s1tElRch3cfrZ",
        "name": "To Upper",
        "title": "To Upper",
        "type": "core.string2upper",
        "base_type": "activity",
        "properties": {
          "continue_on_failure": false,
          "display_name": "To Upper",
          "skip_execution": false,
          "source": "automation"
        },
        "object_type": "definition_activity"
      },
      {
        "unique_name": "definition_activity_024L1RG9SZ9VJ7ZiqYcuRYIXdGlWJM6TzAX",
        "name": "Condition Block",
        "title": "Condition Block",
        "type": "logic.if_else",
        "base_type": "activity",
        "properties": {
          "continue_on_failure": false,
          "display_name": "Condition Block",
          "skip_execution": false
        },
        "object_type": "definition_activity",
        "blocks": [
          {
            "unique_name": "definition_activity_024L1RGAKKRUA5A0UnaoXkeY64Ez1tnw4H7",
            "name": "Condition Branch",
            "title": "Condition Branch",
            "type": "logic.condition_block",
            "base_type": "activity",
            "properties": {
              "condition": {
                "left_operand": "$activity.definition_activity_024L1RG96RVVU3JHPkbA08s1tElRch3cfrZ.output.uppercase_text$",
                "operator": "eq",
                "right_operand": "AUTOMATION"
              },
              "continue_on_failure": false,
              "display_name": "Condition Branch",
              "skip_execution": false
            },
            "object_type": "definition_activity",
            "actions": [
              {
                "unique_name": "definition_activity_024L1RGBSBW6W43hW0ErBerIVWfhVVk6lix",
                "name": "To Upper",
                "title": "To Upper",
                "type": "core.string2upper",
                "base_type": "activity",
                "properties": {
                  "continue_on_failure": false,
                  "display_name": "To Upper",
                  "skip_execution": false,
                  "source": "automation"
                },
                "object_type": "definition_activity"
              }
            ]
          },
          {
            "unique_name": "definition_activity_024L1RGCIR15M2HHMeJODu62yDHYJhCmXJK",
            "name": "Condition Branch",
            "title": "Condition Branch",
            "type": "logic.condition_block",
            "base_type": "activity",
            "properties": {
              "condition": {
                "left_operand": "$activity.definition_activity_024L1RG96RVVU3JHPkbA08s1tElRch3cfrZ.output.uppercase_text$",
                "operator": "ne",
                "right_operand": "Automation"
              },
              "continue_on_failure": false,
              "display_name": "Condition Branch",
              "skip_execution": false
            },
            "object_type": "definition_activity",
            "actions": [
              {
                "unique_name": "definition_activity_024L1RGDO6YBX7ktS2cBOeWCdpQmgnK3g7M",
                "name": "Completed",
                "title": "Completed",
                "type": "logic.completed",
                "base_type": "activity",
                "properties": {
                  "completion_type": "succeeded",
                  "continue_on_failure": false,
                  "display_name": "Completed",
                  "result_message": "upper Action Got Failed",
                  "skip_execution": false
                },
                "object_type": "definition_activity"
              }
            ]
          }
        ]
      },
      {
        "unique_name": "definition_activity_024L1RGEAZQ6824i9vruvNG70kN43SWDKhC",
        "name": "Group",
        "title": "Group",
        "type": "logic.group",
        "base_type": "activity",
        "properties": {
          "continue_on_failure": false,
          "display_name": "Group",
          "skip_execution": false
        },
        "object_type": "definition_activity",
        "actions": [
          {
            "unique_name": "definition_activity_024L1RGFIDE095EOeeq8RVWMKE24ic5JSxA",
            "name": "Sleep",
            "title": "Sleep",
            "type": "core.sleep",
            "base_type": "activity",
            "properties": {
              "continue_on_failure": false,
              "display_name": "Sleep",
              "skip_execution": false,
              "sleep_interval": 1
            },
            "object_type": "definition_activity"
          }
        ]
      },
      {
        "unique_name": "definition_activity_024L1RGG4Q3NZ72enPqz8XWdenvxBK11XDn",
        "name": "Parallel Block",
        "title": "Parallel Block",
        "type": "logic.parallel",
        "base_type": "activity",
        "properties": {
          "continue_on_failure": false,
          "display_name": "Parallel Block",
          "skip_execution": false
        },
        "object_type": "definition_activity",
        "blocks": [
          {
            "unique_name": "definition_activity_024L1RGGTJ18B1kln7eUroTcefDSTeSzFrM",
            "name": "Parallel Branch",
            "title": "Parallel Branch",
            "type": "logic.parallel_block",
            "base_type": "activity",
            "properties": {
              "continue_on_failure": false,
              "display_name": "Parallel Branch",
              "skip_execution": false
            },
            "object_type": "definition_activity",
            "actions": [
              {
                "unique_name": "definition_activity_024L1RGHP1KBP2G4nidoM8E3v7CAr48sKcd",
                "name": "Split String",
                "title": "Split String",
                "type": "core.splitstring",
                "base_type": "activity",
                "properties": {
                  "boundaries": [
                    {
                      "boundary": ","
                    }
                  ],
                  "continue_on_failure": false,
                  "display_name": "Split String",
                  "input_string": "a,b,c",
                  "skip_execution": false
                },
                "object_type": "definition_activity"
              },
              {
                "unique_name": "definition_activity_024L1RGICCFAK5W2Ea4dID3NRPXpXeRWEGO",
                "name": "For Each",
                "title": "For Each",
                "type": "logic.for_each",
                "base_type": "activity",
                "properties": {
                  "continue_on_failure": false,
                  "display_name": "For Each",
                  "skip_execution": false,
                  "source_array": "$activity.definition_activity_024L1RGHP1KBP2G4nidoM8E3v7CAr48sKcd.output.parts$"
                },
                "object_type": "definition_activity",
                "actions": [
                  {
                    "unique_name": "definition_activity_024L1RGJZILRU5pHxZs63GDXCFOB0FP8Vda",
                    "name": "To Upper",
                    "title": "To Upper",
                    "type": "core.string2upper",
                    "base_type": "activity",
                    "properties": {
                      "continue_on_failure": false,
                      "display_name": "To Upper",
                      "skip_execution": false,
                      "source": "$activity.definition_activity_024L1RGICCFAK5W2Ea4dID3NRPXpXeRWEGO.input.source_array[@]$"
                    },
                    "object_type": "definition_activity"
                  },
                  {
                    "unique_name": "definition_activity_024L1RGLCGOOG5vDDQFZlTJ5ceLRinyOQJL",
                    "name": "Continue",
                    "title": "Continue",
                    "type": "logic.continue",
                    "base_type": "activity",
                    "properties": {
                      "continue_on_failure": false,
                      "display_name": "Continue",
                      "skip_execution": false
                    },
                    "object_type": "definition_activity"
                  }
                ]
              }
            ]
          },
          {
            "unique_name": "definition_activity_024L1RGM2R1H57UhJkSzqmpBWHMTkpNWjoe",
            "name": "Parallel Branch",
            "title": "Parallel Branch",
            "type": "logic.parallel_block",
            "base_type": "activity",
            "properties": {
              "continue_on_failure": false,
              "display_name": "Parallel Branch",
              "skip_execution": false
            },
            "object_type": "definition_activity",
            "actions": [
              {
                "unique_name": "definition_activity_024L1RGMZQQXZ2hLCnDhcdO7Gsg5kr4ldFU",
                "name": "Split String",
                "title": "Split String",
                "type": "core.splitstring",
                "base_type": "activity",
                "properties": {
                  "boundaries": [
                    {
                      "boundary": ","
                    }
                  ],
                  "continue_on_failure": false,
                  "display_name": "Split String",
                  "input_string": "a,b,c",
                  "skip_execution": false
                },
                "object_type": "definition_activity"
              },
              {
                "unique_name": "definition_activity_024L1RGNNOVYY0m8N4R8fIbjyqq9bxJ1CkI",
                "name": "For Each",
                "title": "For Each",
                "type": "logic.for_each",
                "base_type": "activity",
                "properties": {
                  "continue_on_failure": false,
                  "display_name": "For Each",
                  "skip_execution": false,
                  "source_array": "$activity.definition_activity_024L1RGMZQQXZ2hLCnDhcdO7Gsg5kr4ldFU.output.parts$"
                },
                "object_type": "definition_activity",
                "actions": [
                  {
                    "unique_name": "definition_activity_024L1RGPBN5Z12Hde89mgUBJaQh3rxy4GMp",
                    "name": "To Upper",
                    "title": "To Upper",
                    "type": "core.string2upper",
                    "base_type": "activity",
                    "properties": {
                      "continue_on_failure": false,
                      "display_name": "To Upper",
                      "skip_execution": false,
                      "source": "$activity.definition_activity_024L1RGNNOVYY0m8N4R8fIbjyqq9bxJ1CkI.input.source_array[@]$"
                    },
                    "object_type": "definition_activity"
                  },
                  {
                    "unique_name": "definition_activity_024L1RGQ9BKTW2Cmgivye7P9cT66LYL3B7I",
                    "name": "Completed",
                    "title": "Completed",
                    "type": "logic.completed",
                    "base_type": "activity",
                    "properties": {
                      "completion_type": "succeeded",
                      "continue_on_failure": false,
                      "display_name": "Completed",
                      "skip_execution": true
                    },
                    "object_type": "definition_activity"
                  }
                ]
              }
            ]
          },
          {
            "unique_name": "definition_activity_024L1RGQVI54H5zvep27JOCxDV0b2gjU4eG",
            "name": "Parallel Branch",
            "title": "Parallel Branch",
            "type": "logic.parallel_block",
            "base_type": "activity",
            "properties": {
              "continue_on_failure": false,
              "display_name": "Parallel Branch",
              "skip_execution": false
            },
            "object_type": "definition_activity",
            "actions": [
              {
                "unique_name": "definition_activity_024L1RGSGL1KQ6H5VXMS90fz4WtKbcQSerO",
                "name": "Split String",
                "title": "Split String",
                "type": "core.splitstring",
                "base_type": "activity",
                "properties": {
                  "boundaries": [
                    {
                      "boundary": ","
                    }
                  ],
                  "continue_on_failure": false,
                  "display_name": "Split String",
                  "input_string": "a,b,c",
                  "skip_execution": false
                },
                "object_type": "definition_activity"
              },
              {
                "unique_name": "definition_activity_024L1RGTZ3LG57QVjuJxANC7Obwh07xhLeY",
                "name": "For Each",
                "title": "For Each",
                "type": "logic.for_each",
                "base_type": "activity",
                "properties": {
                  "continue_on_failure": false,
                  "display_name": "For Each",
                  "skip_execution": false,
                  "source_array": "$activity.definition_activity_024L1RGSGL1KQ6H5VXMS90fz4WtKbcQSerO.output.parts$"
                },
                "object_type": "definition_activity",
                "actions": [
                  {
                    "unique_name": "definition_activity_024L1RGVN4A3L2IWg5IhrdCYYYmwGdwa9xY",
                    "name": "To Upper",
                    "title": "To Upper",
                    "type": "core.string2upper",
                    "base_type": "activity",
                    "properties": {
                      "continue_on_failure": false,
                      "display_name": "To Upper",
                      "skip_execution": false,
                      "source": "$activity.definition_activity_024L1RGTZ3LG57QVjuJxANC7Obwh07xhLeY.input.source_array[@]$"
                    },
                    "object_type": "definition_activity"
                  },
                  {
                    "unique_name": "definition_activity_024L1RGX0UASJ5tnhl2gIwSXMDUPMn9rbwa",
                    "name": "Break",
                    "title": "Break",
                    "type": "logic.break",
                    "base_type": "activity",
                    "properties": {
                      "continue_on_failure": false,
                      "display_name": "Break",
                      "skip_execution": false
                    },
                    "object_type": "definition_activity"
                  }
                ]
              }
            ]
          }
        ]
      },
      {
        "unique_name": "definition_activity_024L1RGXQ76E94sxG7dH6jZY6gydWliy12W",
        "name": "While Loop",
        "title": "While Loop",
        "type": "logic.while",
        "base_type": "activity",
        "properties": {
          "continue_on_failure": false,
          "display_name": "While Loop",
          "skip_execution": false
        },
        "object_type": "definition_activity",
        "blocks": [
          {
            "unique_name": "definition_activity_024L1RGYE0O0D2oX6Ypt4QjtlQacIErCDFC",
            "name": "Condition Branch",
            "title": "Condition Branch",
            "type": "logic.condition_block",
            "base_type": "activity",
            "properties": {
              "condition": {
                "left_operand": "$workflow.definition_workflow_024L1RG7326305Fsi7FrdAFBdJVF21ek8No.local.variable_workflow_024L1RG79GSGN1fp4JqhCVSsylVYUB4ZtLd$",
                "operator": "lt",
                "right_operand": 5
              },
              "continue_on_failure": false,
              "display_name": "Condition Branch",
              "skip_execution": false
            },
            "object_type": "definition_activity",
            "actions": [
              {
                "unique_name": "definition_activity_024L1RGZFCIKW2HtE2s4N6O5N2oIlh8IVd1",
                "name": "To Upper",
                "title": "To Upper",
                "type": "core.string2upper",
                "base_type": "activity",
                "properties": {
                  "continue_on_failure": false,
                  "display_name": "To Upper",
                  "skip_execution": false,
                  "source": "While loop"
                },
                "object_type": "definition_activity"
              },
              {
                "unique_name": "definition_activity_024L1RH060LO71FkoJKGjfplsFH67Kg7sDh",
                "name": "Set Variables",
                "title": "Set Variables",
                "type": "core.set_multiple_variables",
                "base_type": "activity",
                "properties": {
                  "continue_on_failure": false,
                  "display_name": "Set Variables",
                  "skip_execution": false,
                  "variables_to_update": [
                    {
                      "variable_to_update": "$workflow.definition_workflow_024L1RG7326305Fsi7FrdAFBdJVF21ek8No.local.variable_workflow_024L1RG79GSGN1fp4JqhCVSsylVYUB4ZtLd$",
                      "variable_value_new": "$workflow.definition_workflow_024L1RG7326305Fsi7FrdAFBdJVF21ek8No.local.variable_workflow_024L1RG79GSGN1fp4JqhCVSsylVYUB4ZtLd$+1"
                    }
                  ]
                },
                "object_type": "definition_activity"
              }
            ]
          }
        ]
      },
      {
        "unique_name": "definition_activity_024L1RH19ORRW0M0OwQjt6khGha5oGUjzYV",
        "name": "Start Point",
        "title": "Start Point",
        "type": "logic.start_point",
        "base_type": "activity",
        "properties": {
          "continue_on_failure": false,
          "display_name": "Start Point",
          "skip_execution": false
        },
        "object_type": "definition_activity"
      },
      {
        "unique_name": "definition_activity_024L1RH27C7V21bxH2udjdxRjdMx9I7Eb4W",
        "name": "Completed",
        "title": "Completed",
        "type": "logic.completed",
        "base_type": "activity",
        "properties": {
          "completion_type": "succeeded",
          "continue_on_failure": false,
          "display_name": "Completed",
          "skip_execution": false
        },
        "object_type": "definition_activity"
      }
    ],
    "categories": [
      "category_1BMfMXSnJMyt5Ihqi7rWJr5N8cf"
    ]
  }
}